properties{
  x = 0,
  y = 0,
  width = 320,
  height = 240,
  min_layer = 0,
  max_layer = 2,
  world = "inside_world",
  tileset = "dungeon/light_brown",
  music = "same",
}

tile{
  layer = 0,
  x = 72,
  y = 48,
  width = 176,
  height = 160,
  pattern = "floor_low.1-1",
}

tile{
  layer = 0,
  x = 64,
  y = 16,
  width = 192,
  height = 24,
  pattern = "wall.1-1",
}

tile{
  layer = 0,
  x = 40,
  y = 32,
  width = 24,
  height = 192,
  pattern = "wall.3-1",
}

tile{
  layer = 0,
  x = 40,
  y = 16,
  width = 24,
  height = 24,
  pattern = "wall.corner.1-1",
}

tile{
  layer = 0,
  x = 256,
  y = 32,
  width = 24,
  height = 192,
  pattern = "wall.4-1",
}

tile{
  layer = 0,
  x = 256,
  y = 16,
  width = 24,
  height = 24,
  pattern = "wall.corner.2-1",
}

tile{
  layer = 0,
  x = 40,
  y = 200,
  width = 24,
  height = 24,
  pattern = "wall.corner.3-1",
}

tile{
  layer = 0,
  x = 256,
  y = 200,
  width = 24,
  height = 24,
  pattern = "wall.corner.4-1",
}

tile{
  layer = 0,
  x = 64,
  y = 200,
  width = 192,
  height = 24,
  pattern = "wall.2-1",
}

tile{
  layer = 0,
  x = 64,
  y = 40,
  width = 8,
  height = 8,
  pattern = "wall_border.corner.1-1",
}

tile{
  layer = 0,
  x = 248,
  y = 40,
  width = 8,
  height = 8,
  pattern = "wall_border.corner.2-1",
}

tile{
  layer = 0,
  x = 72,
  y = 40,
  width = 176,
  height = 8,
  pattern = "wall_border.1-1",
}

tile{
  layer = 0,
  x = 64,
  y = 48,
  width = 8,
  height = 144,
  pattern = "wall_border.3-1",
}

tile{
  layer = 0,
  x = 248,
  y = 48,
  width = 8,
  height = 144,
  pattern = "wall_border.4-1",
}

tile{
  layer = 0,
  x = 72,
  y = 192,
  width = 176,
  height = 8,
  pattern = "wall_border.2-1",
}

tile{
  layer = 0,
  x = 248,
  y = 192,
  width = 8,
  height = 8,
  pattern = "wall_border.corner.4-1",
}

tile{
  layer = 0,
  x = 64,
  y = 192,
  width = 8,
  height = 8,
  pattern = "wall_border.corner.3-1",
}

tile{
  layer = 0,
  x = 152,
  y = 200,
  width = 16,
  height = 16,
  pattern = "door.2",
}

tile{
  layer = 0,
  x = 168,
  y = 200,
  width = 8,
  height = 16,
  pattern = "door.2.support.2-1",
}

tile{
  layer = 0,
  x = 144,
  y = 200,
  width = 8,
  height = 16,
  pattern = "door.2.support.1-1",
}

tile{
  layer = 0,
  x = 152,
  y = 216,
  width = 16,
  height = 32,
  pattern = "floor_low.1-1",
}

tile{
  layer = 0,
  x = 144,
  y = 216,
  width = 8,
  height = 32,
  pattern = "barrier.2-1",
}

tile{
  layer = 0,
  x = 168,
  y = 216,
  width = 8,
  height = 32,
  pattern = "barrier.2-1",
}

tile{
  layer = 0,
  x = 216,
  y = 40,
  width = 32,
  height = 40,
  pattern = "bed.default",
}

tile{
  layer = 0,
  x = 184,
  y = 40,
  width = 32,
  height = 40,
  pattern = "bed.default",
}

tile{
  layer = 0,
  x = 160,
  y = 32,
  width = 24,
  height = 24,
  pattern = "dresser.4a",
}

tile{
  layer = 0,
  x = 136,
  y = 32,
  width = 24,
  height = 24,
  pattern = "dresser.4a",
}

tile{
  layer = 0,
  x = 232,
  y = 144,
  width = 16,
  height = 16,
  pattern = "seat.1",
}

tile{
  layer = 0,
  x = 208,
  y = 144,
  width = 16,
  height = 16,
  pattern = "seat.1",
}

tile{
  layer = 0,
  x = 176,
  y = 144,
  width = 16,
  height = 16,
  pattern = "seat.1",
}

tile{
  layer = 0,
  x = 72,
  y = 144,
  width = 16,
  height = 16,
  pattern = "seat.1",
}

tile{
  layer = 0,
  x = 96,
  y = 144,
  width = 16,
  height = 16,
  pattern = "seat.1",
}

tile{
  layer = 0,
  x = 96,
  y = 104,
  width = 16,
  height = 16,
  pattern = "seat.1",
}

tile{
  layer = 0,
  x = 72,
  y = 104,
  width = 16,
  height = 16,
  pattern = "seat.1",
}

tile{
  layer = 0,
  x = 152,
  y = 144,
  width = 16,
  height = 16,
  pattern = "seat.1",
}

tile{
  layer = 0,
  x = 240,
  y = 128,
  width = 8,
  height = 8,
  pattern = "table.6",
}

tile{
  layer = 0,
  x = 152,
  y = 120,
  width = 8,
  height = 8,
  pattern = "table.1",
}

tile{
  layer = 0,
  x = 152,
  y = 136,
  width = 8,
  height = 8,
  pattern = "table.7",
}

tile{
  layer = 0,
  x = 240,
  y = 120,
  width = 8,
  height = 8,
  pattern = "table.3",
}

tile{
  layer = 0,
  x = 160,
  y = 120,
  width = 32,
  height = 8,
  pattern = "table.2",
}

tile{
  layer = 0,
  x = 160,
  y = 136,
  width = 32,
  height = 8,
  pattern = "table.8",
}

tile{
  layer = 0,
  x = 152,
  y = 128,
  width = 8,
  height = 8,
  pattern = "table.4",
}

tile{
  layer = 0,
  x = 160,
  y = 128,
  width = 32,
  height = 8,
  pattern = "table.5",
}

tile{
  layer = 0,
  x = 240,
  y = 136,
  width = 8,
  height = 8,
  pattern = "table.9",
}

tile{
  layer = 0,
  x = 112,
  y = 128,
  width = 8,
  height = 8,
  pattern = "table.6",
}

tile{
  layer = 0,
  x = 72,
  y = 120,
  width = 8,
  height = 8,
  pattern = "table.1",
}

tile{
  layer = 0,
  x = 72,
  y = 136,
  width = 8,
  height = 8,
  pattern = "table.7",
}

tile{
  layer = 0,
  x = 112,
  y = 120,
  width = 8,
  height = 8,
  pattern = "table.3",
}

tile{
  layer = 0,
  x = 80,
  y = 120,
  width = 32,
  height = 8,
  pattern = "table.2",
}

tile{
  layer = 0,
  x = 80,
  y = 136,
  width = 32,
  height = 8,
  pattern = "table.8",
}

tile{
  layer = 0,
  x = 72,
  y = 128,
  width = 8,
  height = 8,
  pattern = "table.4",
}

tile{
  layer = 0,
  x = 80,
  y = 128,
  width = 32,
  height = 8,
  pattern = "table.5",
}

tile{
  layer = 0,
  x = 112,
  y = 136,
  width = 8,
  height = 8,
  pattern = "table.9",
}

tile{
  layer = 0,
  x = 192,
  y = 128,
  width = 8,
  height = 8,
  pattern = "table.6",
}

tile{
  layer = 0,
  x = 192,
  y = 120,
  width = 8,
  height = 8,
  pattern = "table.3",
}

tile{
  layer = 0,
  x = 192,
  y = 136,
  width = 8,
  height = 8,
  pattern = "table.9",
}

tile{
  layer = 0,
  x = 200,
  y = 120,
  width = 8,
  height = 8,
  pattern = "table.1",
}

tile{
  layer = 0,
  x = 200,
  y = 136,
  width = 8,
  height = 8,
  pattern = "table.7",
}

tile{
  layer = 0,
  x = 208,
  y = 120,
  width = 32,
  height = 8,
  pattern = "table.2",
}

tile{
  layer = 0,
  x = 208,
  y = 136,
  width = 32,
  height = 8,
  pattern = "table.8",
}

tile{
  layer = 0,
  x = 200,
  y = 128,
  width = 8,
  height = 8,
  pattern = "table.4",
}

tile{
  layer = 0,
  x = 208,
  y = 128,
  width = 32,
  height = 8,
  pattern = "table.5",
}

tile{
  layer = 0,
  x = 184,
  y = 80,
  width = 16,
  height = 16,
  pattern = "bug_cage",
}

tile{
  layer = 0,
  x = 160,
  y = 112,
  width = 16,
  height = 24,
  pattern = "75",
  tileset = "addition/dungeon",
}

tile{
  layer = 0,
  x = 176,
  y = 112,
  width = 16,
  height = 24,
  pattern = "76",
  tileset = "addition/dungeon",
}

destination{
  name = "bear_house_1_B",
  layer = 0,
  x = 160,
  y = 213,
  direction = 1,
}

teletransporter{
  name = "bear_house_2_B",
  layer = 0,
  x = 152,
  y = 216,
  properties = {
    {
      key = "effect",
      value = "radial_fade_out",
    },
  },
  width = 16,
  height = 16,
  destination_map = "out/d4_yarna_desert",
  destination = "bear_house_2_A",
}

destructible{
  layer = 0,
  x = 80,
  y = 61,
  sprite = "entities/destructibles/pot",
  weight = 1,
  damage_on_enemies = 2,
}

destructible{
  layer = 0,
  x = 96,
  y = 61,
  sprite = "entities/destructibles/pot",
  weight = 1,
  damage_on_enemies = 2,
}

destructible{
  layer = 0,
  x = 112,
  y = 61,
  sprite = "entities/destructibles/pot",
  weight = 1,
  damage_on_enemies = 2,
}

npc{
  name = "bear",
  layer = 0,
  x = 184,
  y = 117,
  direction = 3,
  subtype = 1,
  sprite = "npc/animals/bear",
}

npc{
  name = "wardrobe_1",
  layer = 0,
  x = 144,
  y = 53,
  direction = 3,
  subtype = 1,
}

npc{
  name = "wardrobe_2",
  layer = 0,
  x = 160,
  y = 53,
  direction = 3,
  subtype = 1,
}

npc{
  name = "wardrobe_3",
  layer = 0,
  x = 176,
  y = 53,
  direction = 3,
  subtype = 1,
}

wall{
  layer = 0,
  x = 168,
  y = 96,
  width = 32,
  height = 24,
  stops_hero = true,
  stops_npcs = true,
  stops_enemies = true,
  stops_blocks = true,
  stops_projectiles = true,
}

npc{
  name = "bear_invisible",
  layer = 0,
  x = 176,
  y = 117,
  direction = 3,
  subtype = 1,
}

npc{
  name = "cooking_rabbit",
  layer = 0,
  x = 224,
  y = 133,
  direction = 3,
  subtype = 1,
  sprite = "npc/animals/cook_rabbit",
}

wall{
  layer = 0,
  x = 152,
  y = 200,
  width = 16,
  height = 16,
  stops_npcs = true,
  stops_enemies = true,
  stops_blocks = true,
}

tile{
  layer = 1,
  x = 144,
  y = 216,
  width = 32,
  height = 8,
  pattern = "door_top.2-1",
}

tile{
  layer = 1,
  x = 160,
  y = 8,
  width = 24,
  height = 24,
  pattern = "287",
}

tile{
  layer = 1,
  x = 136,
  y = 8,
  width = 24,
  height = 24,
  pattern = "287",
}

pickable{
  name = "ananas",
  layer = 1,
  x = 208,
  y = 125,
  treasure_name = "magnifying_lens",
  treasure_variant = 7,
}

tile{
  layer = 2,
  x = 0,
  y = 0,
  width = 40,
  height = 240,
  pattern = "ceiling.2",
}

tile{
  layer = 2,
  x = 280,
  y = 0,
  width = 40,
  height = 240,
  pattern = "ceiling.2",
}

tile{
  layer = 2,
  x = 40,
  y = 0,
  width = 240,
  height = 16,
  pattern = "ceiling.2",
}

tile{
  layer = 2,
  x = 40,
  y = 224,
  width = 240,
  height = 16,
  pattern = "ceiling.2",
}

