animation{
  name = "default",
  src_image = "menus/title_screen/wave_big.png",
  frame_delay = 250,
  frame_to_loop_on = 0,
  directions = {
    { x = 0, y = 0, frame_width = 16, frame_height = 8, origin_x = 0, origin_y = 0, num_frames = 3 },
  },
}
